…
``` r
litters_df = janitor::clean_names(litters_df)
```

\##Take a look at the data

Printing in the console.

``` r
litters_df 
```

    ## # A tibble: 49 × 8
    ##    group litter_number   gd0_weight gd18_weight gd_of_…¹ pups_…² pups_…³ pups_…⁴
    ##    <chr> <chr>                <dbl>       <dbl>    <dbl>   <dbl>   <dbl>   <dbl>
    ##  1 Con7  #85                   19.7        34.7       20       3       4       3
    ##  2 Con7  #1/2/95/2             27          42         19       8       0       7
    ##  3 Con7  #5/5/3/83/3-3         26          41.4       19       6       0       5
    ##  4 Con7  #5/4/2/95/2           28.5        44.1       19       5       1       4
    ##  5 Con7  #4/2/95/3-3           NA          NA         20       6       0       6
    ##  6 Con7  #2/2/95/3-2           NA          NA         20       6       0       4
    ##  7 Con7  #1/5/3/83/3-3/2       NA          NA         20       9       0       9
    ##  8 Con8  #3/83/3-3             NA          NA         20       9       1       8
    ##  9 Con8  #2/95/3               NA          NA         20       8       0       8
    ## 10 Con8  #3/5/2/2/95           28.5        NA         20       8       0       8
    ## # … with 39 more rows, and abbreviated variable names ¹​gd_of_birth,
    ## #   ²​pups_born_alive, ³​pups_dead_birth, ⁴​pups_survive
…
Read in a sas file

``` r
pulse_df = read_sas("./data/public_pulse_data.sas7bdat")
pulse_df
```

    ## # A tibble: 1,087 × 7
    ##       ID   age Sex    BDIScore_BL BDIScore_01m BDIScore_06m BDIScore_12m
    ##    <dbl> <dbl> <chr>        <dbl>        <dbl>        <dbl>        <dbl>
    ##  1 10003  48.0 male             7            1            2            0
    ##  2 10015  72.5 male             6           NA           NA           NA
    ##  3 10022  58.5 male            14            3            8           NA
    ##  4 10026  72.7 male            20            6           18           16
    ##  5 10035  60.4 male             4            0            1            2
    ##  6 10050  84.7 male             2           10           12            8
    ##  7 10078  31.3 male             4            0           NA           NA
    ##  8 10088  56.9 male             5           NA            0            2
    ##  9 10091  76.0 male             0            3            4            0
    ## 10 10092  74.2 female          10            2           11            6
    ## # … with 1,077 more rows
…
``` r
litters_df = janitor::clean_names(litters_df)
```

## ‘select’

Choose some columns and not others.

``` r
select(litters_df, group, gd0_weight:gd_of_birth)
```

    ## # A tibble: 49 × 4
    ##    group gd0_weight gd18_weight gd_of_birth
    ##    <chr>      <dbl>       <dbl>       <dbl>
    ##  1 Con7        19.7        34.7          20
    ##  2 Con7        27          42            19
    ##  3 Con7        26          41.4          19
    ##  4 Con7        28.5        44.1          19
    ##  5 Con7        NA          NA            20
    ##  6 Con7        NA          NA            20
    ##  7 Con7        NA          NA            20
    ##  8 Con8        NA          NA            20
    ##  9 Con8        NA          NA            20
    ## 10 Con8        28.5        NA            20
    ## # … with 39 more rows

``` r
select(litters_df, -litter_number)
```

    ## # A tibble: 49 × 7
    ##    group gd0_weight gd18_weight gd_of_birth pups_born_alive pups_dead_…¹ pups_…²
    ##    <chr>      <dbl>       <dbl>       <dbl>           <dbl>        <dbl>   <dbl>
    ##  1 Con7        19.7        34.7          20               3            4       3
    ##  2 Con7        27          42            19               8            0       7
    ##  3 Con7        26          41.4          19               6            0       5
    ##  4 Con7        28.5        44.1          19               5            1       4
    ##  5 Con7        NA          NA            20               6            0       6
    ##  6 Con7        NA          NA            20               6            0       4
    ##  7 Con7        NA          NA            20               9            0       9
    ##  8 Con8        NA          NA            20               9            1       8
    ##  9 Con8        NA          NA            20               8            0       8
    ## 10 Con8        28.5        NA            20               8            0       8
    ## # … with 39 more rows, and abbreviated variable names ¹​pups_dead_birth,
    ## #   ²​pups_survive

Renaming columns

``` r
select(litters_df, GROUP = group)
```

    ## # A tibble: 49 × 1
    ##    GROUP
    ##    <chr>
    ##  1 Con7 
    ##  2 Con7 
    ##  3 Con7 
    ##  4 Con7 
    ##  5 Con7 
    ##  6 Con7 
    ##  7 Con7 
    ##  8 Con8 
    ##  9 Con8 
    ## 10 Con8 
    ## # … with 39 more rows

``` r
rename(litters_df, GROUP = group)
```

    ## # A tibble: 49 × 8
    ##    GROUP litter_number   gd0_weight gd18_weight gd_of_…¹ pups_…² pups_…³ pups_…⁴
    ##    <chr> <chr>                <dbl>       <dbl>    <dbl>   <dbl>   <dbl>   <dbl>
    ##  1 Con7  #85                   19.7        34.7       20       3       4       3
    ##  2 Con7  #1/2/95/2             27          42         19       8       0       7
    ##  3 Con7  #5/5/3/83/3-3         26          41.4       19       6       0       5
    ##  4 Con7  #5/4/2/95/2           28.5        44.1       19       5       1       4
    ##  5 Con7  #4/2/95/3-3           NA          NA         20       6       0       6
    ##  6 Con7  #2/2/95/3-2           NA          NA         20       6       0       4
    ##  7 Con7  #1/5/3/83/3-3/2       NA          NA         20       9       0       9
    ##  8 Con8  #3/83/3-3             NA          NA         20       9       1       8
    ##  9 Con8  #2/95/3               NA          NA         20       8       0       8
    ## 10 Con8  #3/5/2/2/95           28.5        NA         20       8       0       8
    ## # … with 39 more rows, and abbreviated variable names ¹​gd_of_birth,
    ## #   ²​pups_born_alive, ³​pups_dead_birth, ⁴​pups_survive

Select helpers

``` r
select(litters_df, starts_with("gd"))
```

    ## # A tibble: 49 × 3
    ##    gd0_weight gd18_weight gd_of_birth
    ##         <dbl>       <dbl>       <dbl>
    ##  1       19.7        34.7          20
    ##  2       27          42            19
    ##  3       26          41.4          19
    ##  4       28.5        44.1          19
    ##  5       NA          NA            20
    ##  6       NA          NA            20
    ##  7       NA          NA            20
    ##  8       NA          NA            20
    ##  9       NA          NA            20
    ## 10       28.5        NA            20
    ## # … with 39 more rows

``` r
select(litters_df, litter_number, everything())
```

    ## # A tibble: 49 × 8
    ##    litter_number   group gd0_weight gd18_weight gd_of_…¹ pups_…² pups_…³ pups_…⁴
    ##    <chr>           <chr>      <dbl>       <dbl>    <dbl>   <dbl>   <dbl>   <dbl>
    ##  1 #85             Con7        19.7        34.7       20       3       4       3
    ##  2 #1/2/95/2       Con7        27          42         19       8       0       7
    ##  3 #5/5/3/83/3-3   Con7        26          41.4       19       6       0       5
    ##  4 #5/4/2/95/2     Con7        28.5        44.1       19       5       1       4
    ##  5 #4/2/95/3-3     Con7        NA          NA         20       6       0       6
    ##  6 #2/2/95/3-2     Con7        NA          NA         20       6       0       4
    ##  7 #1/5/3/83/3-3/2 Con7        NA          NA         20       9       0       9
    ##  8 #3/83/3-3       Con8        NA          NA         20       9       1       8
    ##  9 #2/95/3         Con8        NA          NA         20       8       0       8
    ## 10 #3/5/2/2/95     Con8        28.5        NA         20       8       0       8
    ## # … with 39 more rows, and abbreviated variable names ¹​gd_of_birth,
    ## #   ²​pups_born_alive, ³​pups_dead_birth, ⁴​pups_survive

``` r
relocate(litters_df, litter_number)
```

    ## # A tibble: 49 × 8
    ##    litter_number   group gd0_weight gd18_weight gd_of_…¹ pups_…² pups_…³ pups_…⁴
    ##    <chr>           <chr>      <dbl>       <dbl>    <dbl>   <dbl>   <dbl>   <dbl>
    ##  1 #85             Con7        19.7        34.7       20       3       4       3
    ##  2 #1/2/95/2       Con7        27          42         19       8       0       7
    ##  3 #5/5/3/83/3-3   Con7        26          41.4       19       6       0       5
    ##  4 #5/4/2/95/2     Con7        28.5        44.1       19       5       1       4
    ##  5 #4/2/95/3-3     Con7        NA          NA         20       6       0       6
    ##  6 #2/2/95/3-2     Con7        NA          NA         20       6       0       4
    ##  7 #1/5/3/83/3-3/2 Con7        NA          NA         20       9       0       9
    ##  8 #3/83/3-3       Con8        NA          NA         20       9       1       8
    ##  9 #2/95/3         Con8        NA          NA         20       8       0       8
    ## 10 #3/5/2/2/95     Con8        28.5        NA         20       8       0       8
    ## # … with 39 more rows, and abbreviated variable names ¹​gd_of_birth,
    ## #   ²​pups_born_alive, ³​pups_dead_birth, ⁴​pups_survive
…
``` r
filter(litters_df, gd0_weight >= 22)
```

    ## # A tibble: 26 × 8
    ##    group litter_number gd0_weight gd18_weight gd_of_bi…¹ pups_…² pups_…³ pups_…⁴
    ##    <chr> <chr>              <dbl>       <dbl>      <dbl>   <dbl>   <dbl>   <dbl>
    ##  1 Con7  #1/2/95/2           27          42           19       8       0       7
    ##  2 Con7  #5/5/3/83/3-3       26          41.4         19       6       0       5
    ##  3 Con7  #5/4/2/95/2         28.5        44.1         19       5       1       4
    ##  4 Con8  #3/5/2/2/95         28.5        NA           20       8       0       8
    ##  5 Con8  #5/4/3/83/3         28          NA           19       9       0       8
    ##  6 Mod7  #3/82/3-2           28          45.9         20       5       0       5
    ##  7 Mod7  #4/2/95/2           23.5        NA           19       9       0       7
    ##  8 Mod7  #5/3/83/5-2         22.6        37           19       5       0       5
    ##  9 Mod7  #94/2               24.4        42.9         19       7       1       3
    ## 10 Low7  #84/2               24.3        40.8         20       8       0       8
    ## # … with 16 more rows, and abbreviated variable names ¹​gd_of_birth,
    ## #   ²​pups_born_alive, ³​pups_dead_birth, ⁴​pups_survive

Whether =20?

``` r
filter(litters_df, gd_of_birth == 20)
```

    ## # A tibble: 32 × 8
    ##    group litter_number   gd0_weight gd18_weight gd_of_…¹ pups_…² pups_…³ pups_…⁴
    ##    <chr> <chr>                <dbl>       <dbl>    <dbl>   <dbl>   <dbl>   <dbl>
    ##  1 Con7  #85                   19.7        34.7       20       3       4       3
    ##  2 Con7  #4/2/95/3-3           NA          NA         20       6       0       6
    ##  3 Con7  #2/2/95/3-2           NA          NA         20       6       0       4
    ##  4 Con7  #1/5/3/83/3-3/2       NA          NA         20       9       0       9
    ##  5 Con8  #3/83/3-3             NA          NA         20       9       1       8
    ##  6 Con8  #2/95/3               NA          NA         20       8       0       8
    ##  7 Con8  #3/5/2/2/95           28.5        NA         20       8       0       8
    ##  8 Con8  #1/6/2/2/95-2         NA          NA         20       7       0       6
    ##  9 Con8  #3/5/3/83/3-3-2       NA          NA         20       8       0       8
    ## 10 Con8  #3/6/2/2/95-3         NA          NA         20       7       0       7
    ## # … with 22 more rows, and abbreviated variable names ¹​gd_of_birth,
    ## #   ²​pups_born_alive, ³​pups_dead_birth, ⁴​pups_survive
…
## ‘mutate’

str_to_lower: lowercase

``` r
mutate(
  litters_df, 
  wt_gain = gd18_weight -gd0_weight,
  group = str_to_lower(group))
```

    ## # A tibble: 49 × 9
    ##    group litter_number   gd0_w…¹ gd18_…² gd_of…³ pups_…⁴ pups_…⁵ pups_…⁶ wt_gain
    ##    <chr> <chr>             <dbl>   <dbl>   <dbl>   <dbl>   <dbl>   <dbl>   <dbl>
    ##  1 con7  #85                19.7    34.7      20       3       4       3    15  
    ##  2 con7  #1/2/95/2          27      42        19       8       0       7    15  
    ##  3 con7  #5/5/3/83/3-3      26      41.4      19       6       0       5    15.4
    ##  4 con7  #5/4/2/95/2        28.5    44.1      19       5       1       4    15.6
    ##  5 con7  #4/2/95/3-3        NA      NA        20       6       0       6    NA  
    ##  6 con7  #2/2/95/3-2        NA      NA        20       6       0       4    NA  
    ##  7 con7  #1/5/3/83/3-3/2    NA      NA        20       9       0       9    NA  
    ##  8 con8  #3/83/3-3          NA      NA        20       9       1       8    NA  
    ##  9 con8  #2/95/3            NA      NA        20       8       0       8    NA  
    ## 10 con8  #3/5/2/2/95        28.5    NA        20       8       0       8    NA  
    ## # … with 39 more rows, and abbreviated variable names ¹​gd0_weight,
    ## #   ²​gd18_weight, ³​gd_of_birth, ⁴​pups_born_alive, ⁵​pups_dead_birth,
    ## #   ⁶​pups_survive

\##‘arrange’

``` r
arrange(litters_df, pups_born_alive)
```

    ## # A tibble: 49 × 8
    ##    group litter_number gd0_weight gd18_weight gd_of_bi…¹ pups_…² pups_…³ pups_…⁴
    ##    <chr> <chr>              <dbl>       <dbl>      <dbl>   <dbl>   <dbl>   <dbl>
    ##  1 Con7  #85                 19.7        34.7         20       3       4       3
    ##  2 Low7  #111                25.5        44.6         20       3       2       3
    ##  3 Low8  #4/84               21.8        35.2         20       4       0       4
    ##  4 Con7  #5/4/2/95/2         28.5        44.1         19       5       1       4
    ##  5 Con8  #2/2/95/2           NA          NA           19       5       0       4
    ##  6 Mod7  #3/82/3-2           28          45.9         20       5       0       5
    ##  7 Mod7  #5/3/83/5-2         22.6        37           19       5       0       5
    ##  8 Mod7  #106                21.7        37.8         20       5       0       2
    ##  9 Con7  #5/5/3/83/3-3       26          41.4         19       6       0       5
    ## 10 Con7  #4/2/95/3-3         NA          NA           20       6       0       6
    ## # … with 39 more rows, and abbreviated variable names ¹​gd_of_birth,
    ## #   ²​pups_born_alive, ³​pups_dead_birth, ⁴​pups_survive
…
